
<svg width="440px" height="502px" viewBox="0 0 440 502" version="1.1" xmlns="http://www.w3.org/2000/svg" xmlns:xlink="http://www.w3.org/1999/xlink">
    <!-- Generator: Sketch 50.2 (55047) - http://www.bohemiancoding.com/sketch -->
    <desc>Created with Sketch.</desc>
    <defs>
        <polygon id="path-1" points="0.7 0.9 32 0.9 32 63.6 0.7 63.6"></polygon>
    </defs>
    <g id="Page-1" stroke="none" stroke-width="1" fill="none" fill-rule="evenodd">
        <g id="triangles-top-left-blue" transform="translate(94.500000, 251.000000) scale(-1, 1) translate(-94.500000, -251.000000) translate(-251.000000, -1.000000)">
            <g id="Group-5" transform="translate(345.500000, 252.000000) scale(-1, 1) translate(-345.500000, -252.000000) ">
                <g id="Page-1">
                    <g id="Group-9" transform="translate(313.698206, 252.099692)" fill-rule="nonzero">
                        <polygon id="Fill-1" fill-opacity="0" fill="#FEFEFE" points="0 0 31.3 31.4 62.7 0"></polygon>
                        <polygon id="Fill-3" fill-opacity="0" fill="#FEFEFE" points="62.7 0 94 31.4 125.4 0"></polygon>
                        <polygon id="Fill-5" fill="#081E3F" points="376.3 0 344.9 31.4 313.6 0"></polygon>
                        <polygon id="Fill-7" fill="#081E3F" points="313.6 0 282.2 31.4 250.8 0"></polygon>
                    </g>
                    <polygon id="Fill-10" fill-opacity="0" fill="#FEFEFE" fill-rule="nonzero" points="564.6 252.1 533.2 283.5 501.8 252.1"></polygon>
                    <polygon id="Fill-11" fill-opacity="0" fill="#FEFEFE" fill-rule="nonzero" points="501.8 252.1 470.5 283.5 439.1 252.1"></polygon>
                    <g id="Group-16" transform="translate(0.000000, 252.099692)" fill="#FEFEFE" fill-opacity="0" fill-rule="nonzero">
                        <polygon id="Fill-14" points="313.7 0 282.3 31.4 250.9 0"></polygon>
                    </g>
                    <g id="Group-36" transform="translate(0.000000, 220.509949)" fill="#FEFEFE" fill-opacity="0" fill-rule="nonzero">
                        <polygon id="Fill-22" points="313.7 31.6 345 0.3 376.4 31.6"></polygon>
                        <polygon id="Fill-24" points="376.4 31.6 407.7 0.3 439.1 31.6"></polygon>
                        <polygon id="Fill-26" points="690 31.6 658.6 0.3 627.3 31.6"></polygon>
                        <polygon id="Fill-30" points="501.8 31.6 470.5 0.3 439.1 31.6"></polygon>
                        <polygon id="Fill-34" points="313.7 31.6 282.3 0.3 250.9 31.6"></polygon>
                    </g>
                    <g id="Group-50" transform="translate(0.000000, 220.509949)" fill-rule="nonzero">
                        <polygon id="Fill-44" fill-opacity="0" fill="#FEFEFE" points="690.1 94.3 658.7 63 690.1 31.6"></polygon>
                        <polygon id="Fill-46" fill="#082046" points="627.4 94.3 658.7 63 627.4 31.6"></polygon>
                        <polygon id="Fill-48" fill-opacity="0" fill="#FEFEFE" points="627.4 94.3 596 63 627.4 31.6"></polygon>
                    </g>
                    <polygon id="Fill-51" fill="#081B3F" fill-rule="nonzero" points="501.9 314.8 533.3 283.5 501.9 252.1"></polygon>
                    <g id="Group-66" transform="translate(31.479608, 252.099692)" fill-rule="nonzero">
                        <polygon id="Fill-52" fill="#081E3F" points="533.2 62.7 564.5 31.4 533.2 0"></polygon>
                        <polygon id="Fill-54" fill-opacity="0" fill="#FEFEFE" points="533.2 62.7 501.8 31.4 533.2 0"></polygon>
                        <polygon id="Fill-56" fill-opacity="0" fill="#FEFEFE" points="407.7 62.7 439.1 31.4 407.7 0"></polygon>
                        <polygon id="Fill-58" fill-opacity="0" fill="#FEFEFE" points="407.7 62.7 376.4 31.4 407.7 0"></polygon>
                        <polygon id="Fill-62" fill-opacity="0" fill="#FEFEFE" points="282.3 0 313.7 31.4 282.3 62.7"></polygon>
                        <polygon id="Fill-64" fill-opacity="0" fill="#FEFEFE" points="345 0 313.7 31.4 345 62.7"></polygon>
                    </g>
                    <g id="Group-96" transform="translate(0.000000, 188.920205)" fill-rule="nonzero">
                        <polygon id="Fill-74" fill-opacity="0" fill="#FEFEFE" points="313.8 125.9 282.4 94.6 313.8 63.2"></polygon>
                        <polygon id="Fill-76" fill-opacity="0" fill="#FEFEFE" points="251.1 125.9 282.4 94.6 251.1 63.2"></polygon>
                        <polygon id="Fill-78" fill-opacity="0" fill="#FEFEFE" points="251.1 125.9 219.7 94.6 251.1 63.2"></polygon>
                        <polygon id="Fill-80" fill="#081E3F" points="627.4 0.5 596 31.9 564.7 0.5"></polygon>
                        <polygon id="Fill-82" fill="#081E3F" points="690.1 0.5 658.8 31.9 627.4 0.5"></polygon>
                        <polygon id="Fill-84" fill="#081E3F" points="564.7 0.5 533.3 31.9 502 0.5"></polygon>
                        <polygon id="Fill-86" fill="#081E3F" points="502 0.5 470.6 31.9 439.2 0.5"></polygon>
                        <polygon id="Fill-88" fill-opacity="0" fill="#FEFEFE" points="439.2 0.5 407.9 31.9 376.5 0.5"></polygon>
                        <polygon id="Fill-92" fill-opacity="0" fill="#FEFEFE" points="313.8 0.5 282.4 31.9 251.1 0.5"></polygon>
                    </g>
                    <polygon id="Fill-97" fill-opacity="0" fill="#FFFFFF" fill-rule="nonzero" points="188.3 189.4 219.7 220.8 251.1 189.4"></polygon>
                    <g id="Group-106" transform="translate(62.088091, 157.330462)" fill="#FEFEFE" fill-opacity="0" fill-rule="nonzero">
                        <polygon id="Fill-100" points="251.7 32.1 283 0.8 314.4 32.1"></polygon>
                    </g>
                    <polygon id="Fill-107" fill-opacity="0" fill="#FEFEFE" fill-rule="nonzero" points="564.7 189.4 533.3 158.1 501.9 189.4"></polygon>
                    <g id="Group-118" transform="translate(0.000000, 157.330462)" fill="#FEFEFE" fill-opacity="0" fill-rule="nonzero">
                        <polygon id="Fill-108" points="501.9 32.1 470.6 0.8 439.2 32.1"></polygon>
                        <polygon id="Fill-110" points="439.2 32.1 407.8 0.8 376.5 32.1"></polygon>
                        <polygon id="Fill-114" points="313.7 32.1 282.4 0.8 251 32.1"></polygon>
                    </g>
                    <polygon id="Fill-119" fill-opacity="0" fill="#FFFFFF" fill-rule="nonzero" points="188.3 189.4 219.6 158.1 251 189.4"></polygon>
                    <g id="Group-136" transform="translate(0.000000, 32.099692)" fill-rule="nonzero">
                        <polygon id="Fill-122" fill="#081E3F" points="627.3 31.7 658.7 0.4 690 31.7"></polygon>
                        <polygon id="Fill-124" fill-opacity="0" fill="#FEFEFE" points="313.7 31.7 345.1 0.4 376.4 31.7"></polygon>
                        <polygon id="Fill-128" fill="#081E3F" points="627.3 31.7 595.9 0.4 564.6 31.7"></polygon>
                        <polygon id="Fill-130" fill-opacity="0" fill="#FEFEFE" points="439.2 31.7 407.8 0.4 376.4 31.7"></polygon>
                        <polygon id="Fill-134" fill-opacity="0" fill="#FEFEFE" points="439.1 31.7 470.5 0.4 501.9 31.7"></polygon>
                    </g>
                    <g id="Group-158" transform="translate(0.000000, 32.099692)" fill-rule="nonzero">
                        <polygon id="Fill-140" fill-opacity="0" fill="#FEFEFE" points="188.3 31.7 219.6 0.4 251 31.7"></polygon>
                        <polygon id="Fill-142" fill-opacity="0" fill="#FEFEFE" points="313.7 31.7 282.3 0.4 251 31.7"></polygon>
                        <polygon id="Fill-144" fill="#081E3F" points="627.4 31.7 658.8 63.1 690.1 31.7"></polygon>
                        <polygon id="Fill-146" fill-opacity="0" fill="#FEFEFE" points="313.8 31.7 345.2 63.1 376.6 31.7"></polygon>
                        <polygon id="Fill-152" fill-opacity="0" fill="#FEFEFE" points="439.3 31.7 407.9 63.1 376.5 31.7"></polygon>
                        <polygon id="Fill-154" fill="#081E3F" points="502 31.7 533.3 63.1 564.7 31.7"></polygon>
                        <polygon id="Fill-156" fill="#082046" points="439.2 31.7 470.6 63.1 502 31.7"></polygon>
                    </g>
                    <g id="Group-254" transform="translate(0.000000, 63.689436)" fill-rule="nonzero">
                        <polygon id="Fill-162" fill-opacity="0" fill="#FEFEFE" points="188.3 0.1 219.7 31.5 251 0.1"></polygon>
                        <polygon id="Fill-164" fill="#082046" points="313.8 0.1 282.4 31.5 251.1 0.1"></polygon>
                        <polygon id="Fill-170" fill-opacity="0" fill="#FEFEFE" points="690.1 62.8 658.8 31.5 690.1 0.1"></polygon>
                        <polygon id="Fill-176" fill-opacity="0" fill="#FEFEFE" points="501.9 62.8 533.3 31.5 501.9 0.1"></polygon>
                        <polygon id="Fill-180" fill-opacity="0" fill="#FEFEFE" points="439.2 62.8 470.6 31.5 439.2 0.1"></polygon>
                        <polygon id="Fill-184" fill="#081E3F" points="564.7 0.1 596 31.5 564.7 62.8"></polygon>
                        <polygon id="Fill-186" fill="#082046" points="376.5 0.1 345.1 31.5 376.5 62.8"></polygon>
                        <polygon id="Fill-188" fill-opacity="0" fill="#FEFEFE" points="376.5 0.1 407.8 31.5 376.5 62.8"></polygon>
                        <polygon id="Fill-192" fill-opacity="0" fill="#FEFEFE" points="313.7 0.1 345.1 31.5 313.7 62.8"></polygon>
                        <polygon id="Fill-204" fill-opacity="0" fill="#FEFEFE" points="251 0.1 219.6 31.5 251 62.8"></polygon>
                        <polygon id="Fill-208" fill-opacity="0" fill="#FEFEFE" points="251 62.8 282.4 31.5 251 0.1"></polygon>
                        <polygon id="Fill-212" fill-opacity="0" fill="#FEFEFE" points="313.8 62.9 345.2 31.6 376.5 62.9"></polygon>
                        <polygon id="Fill-216" fill-opacity="0" fill="#FEFEFE" points="564.7 62.9 533.3 31.6 502 62.9"></polygon>
                        <polygon id="Fill-218" fill-opacity="0" fill="#FEFEFE" points="502 62.9 470.6 31.6 439.2 62.9"></polygon>
                        <polygon id="Fill-220" fill-opacity="0" fill="#FEFEFE" points="376.5 63 407.9 31.6 439.2 63"></polygon>
                        <polygon id="Fill-228" fill-opacity="0" fill="#FEFEFE" points="188.3 63 219.7 31.7 251.1 63"></polygon>
                        <polygon id="Fill-230" fill-opacity="0" fill="#FEFEFE" points="313.8 63 282.4 31.6 251.1 63"></polygon>
                        <polygon id="Fill-232" fill="#081E3F" points="690.1 63 658.8 94.4 627.4 63"></polygon>
                        <polygon id="Fill-234" fill-opacity="0" fill="#FEFEFE" points="313.8 63 345.2 94.4 376.5 63"></polygon>
                        <polygon id="Fill-236" fill-opacity="0" fill="#FEFEFE" points="627.4 63 596 94.4 564.7 63"></polygon>
                        <polygon id="Fill-242" fill="#082046" points="376.5 63 407.9 94.4 439.2 63"></polygon>
                        <polygon id="Fill-250" fill-opacity="0" fill="#FEFEFE" points="188.3 63 219.7 94.4 251.1 63"></polygon>
                        <polygon id="Fill-252" fill-opacity="0" fill="#FEFEFE" points="313.8 63 282.4 94.4 251.1 63"></polygon>
                    </g>
                    <polygon id="Fill-255" fill="#081B3F" fill-rule="nonzero" points="564.7 252.5 533.3 221.2 564.7 189.8"></polygon>
                    <g id="Group-267" transform="translate(0.000000, 188.920205)">
                        <g id="Group-260" transform="translate(658.133768, 0.000000)">
                            <g id="Fill-258-Clipped">
                                <mask id="mask-2" fill="white">
                                    <use xlink:href="#path-1"></use>
                                </mask>
                                <g id="path-1_1_"></g>
                                <polygon id="Fill-258" fill="#081E3F" fill-rule="nonzero" mask="url(#mask-2)" points="32 63.6 0.7 32.3 32 0.9"></polygon>
                            </g>
                        </g>
                        <polygon id="Fill-265" fill-opacity="0" fill="#FEFEFE" fill-rule="nonzero" points="627.4 63.6 596.1 32.3 627.4 0.9"></polygon>
                    </g>
                    <polygon id="Fill-268" fill-opacity="0" fill="#FEFEFE" fill-rule="nonzero" points="439.3 252.5 470.6 221.2 439.3 189.8"></polygon>
                    <g id="Group-277" transform="translate(31.479608, 188.920205)" fill="#FEFEFE" fill-opacity="0" fill-rule="nonzero">
                        <polygon id="Fill-271" points="282.4 0.9 313.7 32.3 282.4 63.6"></polygon>
                        <polygon id="Fill-273" points="345.1 0.9 313.7 32.3 345.1 63.6"></polygon>
                        <polygon id="Fill-275" points="345.1 0.9 376.4 32.3 345.1 63.6"></polygon>
                    </g>
                    <polygon id="Fill-280" fill-opacity="0" fill="#FEFEFE" fill-rule="nonzero" points="251.1 252.5 282.5 221.2 251.1 189.8"></polygon>
                    <polygon id="Fill-283" fill-opacity="0" fill="#FEFEFE" fill-rule="nonzero" points="251.1 252.5 219.8 221.2 251.1 189.8"></polygon>
                    <g id="Group-318" transform="translate(0.000000, 126.740718)" fill-rule="nonzero">
                        <polygon id="Fill-288" fill-opacity="0" fill="#FEFEFE" points="690.1 62.8 658.7 31.5 690.1 0.1"></polygon>
                        <polygon id="Fill-298" fill-opacity="0" fill="#FEFEFE" points="627.4 62.8 596 31.5 627.4 0.2"></polygon>
                        <polygon id="Fill-302" fill="#081E3F" points="502 62.9 470.6 31.5 502 0.2"></polygon>
                        <polygon id="Fill-304" fill-opacity="0" fill="#FEFEFE" points="439.2 62.8 407.9 31.5 439.2 0.1"></polygon>
                        <polygon id="Fill-308" fill-opacity="0" fill="#FEFEFE" points="376.5 62.8 345.2 31.5 376.5 0.1"></polygon>
                        <polygon id="Fill-310" fill-opacity="0" fill="#FEFEFE" points="376.5 62.8 407.9 31.5 376.5 0.1"></polygon>
                        <polygon id="Fill-314" fill-opacity="0" fill="#FEFEFE" points="313.8 0.2 345.2 31.5 313.8 62.9"></polygon>
                    </g>
                    <polygon id="Fill-320" fill-opacity="0" fill="#FEFEFE" fill-rule="nonzero" points="251.1 126.9 219.7 158.3 251.1 189.6"></polygon>
                    <polygon id="Fill-322" fill-opacity="0" fill="#FEFEFE" fill-rule="nonzero" points="313.8 189.6 282.4 158.3 313.8 126.9"></polygon>
                    <polygon id="Fill-324" fill-opacity="0" fill="#FEFEFE" fill-rule="nonzero" points="251.1 189.4 282.4 158.1 251.1 126.7"></polygon>
                    <g id="Group-349" transform="translate(0.000000, 126.868923)" fill="#FEFEFE" fill-opacity="0" fill-rule="nonzero">
                        <polygon id="Fill-329" points="690.1 313.4 658.8 282 627.4 313.4"></polygon>
                        <polygon id="Fill-331" points="313.8 313.4 345.1 282 376.5 313.4"></polygon>
                        <polygon id="Fill-333" points="627.4 313.4 596 282 564.7 313.4"></polygon>
                        <polygon id="Fill-335" points="564.7 313.4 533.3 282 502 313.4"></polygon>
                        <polygon id="Fill-339" points="376.5 313.4 407.9 282 439.2 313.4"></polygon>
                    </g>
                    <g id="Group-447" transform="translate(0.000000, 0.509949)" fill-rule="nonzero">
                        <polygon id="Fill-361" fill-opacity="0" fill="#FEFEFE" points="251 0.6 282.4 32 251 63.3"></polygon>
                        <polygon id="Fill-369" fill="#082046" points="313.8 63.3 345.1 32 313.8 0.6"></polygon>
                        <polygon id="Fill-371" fill-opacity="0" fill="#FEFEFE" points="313.8 63.3 282.4 32 313.8 0.6"></polygon>
                        <polygon id="Fill-373" fill-opacity="0" fill="#FEFEFE" points="376.5 63.3 345.1 32 376.5 0.6"></polygon>
                        <polygon id="Fill-375" fill="#082046" points="376.5 0.6 407.9 32 376.5 63.3"></polygon>
                        <polygon id="Fill-377" fill="#081E3F" points="501.9 0.6 533.3 32 501.9 63.3"></polygon>
                        <polygon id="Fill-379" fill="#081E3F" points="501.9 0.6 470.6 32 501.9 63.3"></polygon>
                        <polygon id="Fill-381" fill-opacity="0" fill="#FEFEFE" points="564.7 0.6 596 32 564.7 63.3"></polygon>
                        <polygon id="Fill-385" fill="#082046" points="439.2 63.3 470.6 32 439.2 0.6"></polygon>
                        <polygon id="Fill-387" fill="#081E3F" points="439.2 63.3 407.9 32 439.2 0.6"></polygon>
                        <polygon id="Fill-393" fill-opacity="0" fill="#FEFEFE" points="690.1 63.3 658.8 32 690.1 0.6"></polygon>
                        <polygon id="Fill-397" fill-opacity="0" fill="#FEFEFE" points="376.5 0.6 345.1 32 313.8 0.6"></polygon>
                        <polygon id="Fill-403" fill-opacity="0" fill="#FEFEFE" points="188.3 0.6 219.7 32 251.1 0.6"></polygon>
                        <polygon id="Fill-405" fill-opacity="0" fill="#FEFEFE" points="313.8 0.6 282.4 32 251 0.6"></polygon>
                        <polygon id="Fill-407" fill-opacity="0" fill="#FEFEFE" points="376.6 0.6 408 32 439.3 0.6"></polygon>
                        <polygon id="Fill-411" fill-opacity="0" fill="#FEFEFE" points="502 0.6 533.4 32 564.8 0.6"></polygon>
                        <polygon id="Fill-415" fill-opacity="0" fill="#FEFEFE" points="690.1 0.6 658.8 32 627.4 0.6"></polygon>
                        <polygon id="Fill-417" fill-opacity="0" fill="#FEFEFE" points="627.3 377 658.7 345.7 690 377"></polygon>
                        <polygon id="Fill-419" fill-opacity="0" fill="#FEFEFE" points="313.7 377 345.1 345.7 376.4 377"></polygon>
                        <polygon id="Fill-423" fill-opacity="0" fill="#FEFEFE" points="439.2 377 407.8 345.7 376.4 377"></polygon>
                        <polygon id="Fill-425" fill-opacity="0" fill="#FEFEFE" points="439.1 377 470.5 345.7 501.9 377"></polygon>
                        <polygon id="Fill-431" fill-opacity="0" fill="#FEFEFE" points="188.3 377 219.6 345.7 251 377"></polygon>
                        <polygon id="Fill-433" fill-opacity="0" fill="#FEFEFE" points="313.7 377 282.3 345.7 251 377"></polygon>
                        <polygon id="Fill-435" fill-opacity="0" fill="#FEFEFE" points="627.4 377 658.8 408.4 690.1 377"></polygon>
                        <polygon id="Fill-441" fill-opacity="0" fill="#FEFEFE" points="627.4 377 596.1 408.4 564.7 377"></polygon>
                        <polygon id="Fill-443" fill-opacity="0" fill="#FEFEFE" points="439.3 377 407.9 408.4 376.5 377"></polygon>
                        <polygon id="Fill-445" fill-opacity="0" fill="#FEFEFE" points="502 377 533.3 408.4 564.7 377"></polygon>
                    </g>
                    <polygon id="Fill-448" fill-opacity="0" fill="#FEFEFE" fill-rule="nonzero" points="439.2 377.5 470.6 408.9 502 377.5"></polygon>
                    <g id="Group-467" transform="translate(0.000000, 377.330462)" fill-rule="nonzero">
                        <polygon id="Fill-453" fill-opacity="0" fill="#FEFEFE" points="188.3 0.2 219.7 31.5 251 0.2"></polygon>
                        <polygon id="Fill-455" fill-opacity="0" fill="#FEFEFE" points="313.8 0.2 282.4 31.5 251.1 0.2"></polygon>
                        <polygon id="Fill-457" fill="#082046" points="627.4 62.9 596 31.5 627.4 0.2"></polygon>
                        <polygon id="Fill-459" fill-opacity="0" fill="#FEFEFE" points="627.4 62.9 658.8 31.5 627.4 0.2"></polygon>
                        <polygon id="Fill-461" fill-opacity="0" fill="#FEFEFE" points="690.1 62.9 658.8 31.5 690.1 0.2"></polygon>
                        <polygon id="Fill-465" fill-opacity="0" fill="#FEFEFE" points="501.9 62.9 470.6 31.5 501.9 0.2"></polygon>
                    </g>
                    <polygon id="Fill-468" fill-opacity="0" fill="#FEFEFE" fill-rule="nonzero" points="501.9 440.2 533.3 408.9 501.9 377.5"></polygon>
                    <g id="Group-475" transform="translate(407.523654, 377.330462)" fill-rule="nonzero">
                        <polygon id="Fill-469" fill-opacity="0" fill="#FEFEFE" points="31.7 62.9 0.3 31.5 31.7 0.2"></polygon>
                        <polygon id="Fill-473" fill="#082046" points="157.1 0.2 125.8 31.5 157.1 62.9"></polygon>
                    </g>
                    <polygon id="Fill-476" fill-opacity="0" fill="#FEFEFE" fill-rule="nonzero" points="564.7 377.5 596 408.9 564.7 440.2"></polygon>
                    <g id="Group-491" transform="translate(31.479608, 377.330462)" fill="#FEFEFE" fill-opacity="0" fill-rule="nonzero">
                        <polygon id="Fill-477" points="345 0.2 313.6 31.5 345 62.9"></polygon>
                    </g>
                    <g id="Group-515" transform="translate(0.000000, 314.150974)" fill="#FEFEFE" fill-opacity="0" fill-rule="nonzero">
                        <polygon id="Fill-495" points="313.7 126.1 282.4 94.7 313.7 63.4"></polygon>
                        <polygon id="Fill-497" points="251 126.1 282.4 94.7 251 63.4"></polygon>
                        <polygon id="Fill-507" points="251 0.7 282.4 32 251 63.4"></polygon>
                        <polygon id="Fill-509" points="251 0.7 219.7 32 251 63.4"></polygon>
                    </g>
                    <polygon id="Fill-516" fill-opacity="0" fill="#FEFEFE" fill-rule="nonzero" points="313.8 377.5 345.1 346.2 313.8 314.8"></polygon>
                    <g id="Group-541" transform="translate(0.000000, 314.150974)" fill-rule="nonzero">
                        <polygon id="Fill-519" fill-opacity="0" fill="#FEFEFE" points="376.5 0.7 407.9 32 376.5 63.4"></polygon>
                        <polygon id="Fill-521" fill-opacity="0" fill="#FEFEFE" points="501.9 0.7 533.3 32 501.9 63.4"></polygon>
                        <polygon id="Fill-523" fill-opacity="0" fill="#FEFEFE" points="501.9 0.7 470.6 32 501.9 63.4"></polygon>
                        <polygon id="Fill-525" fill-opacity="0" fill="#FEFEFE" points="564.7 0.7 596 32 564.7 63.4"></polygon>
                        <polygon id="Fill-527" fill-opacity="0" fill="#FEFEFE" points="564.7 0.7 533.3 32 564.7 63.4"></polygon>
                        <polygon id="Fill-529" fill="#082046" points="439.2 63.4 470.6 32 439.2 0.7"></polygon>
                        <polygon id="Fill-531" fill-opacity="0" fill="#FEFEFE" points="439.2 63.4 407.9 32 439.2 0.7"></polygon>
                        <polygon id="Fill-533" fill="#082046" points="627.4 63.4 658.8 32 627.4 0.7"></polygon>
                        <polygon id="Fill-535" fill-opacity="0" fill="#FEFEFE" points="627.4 63.4 596 32 627.4 0.7"></polygon>
                        <polygon id="Fill-537" fill-opacity="0" fill="#FEFEFE" points="690.1 63.4 658.8 32 690.1 0.7"></polygon>
                    </g>
                    <polygon id="Fill-542" fill-opacity="0" fill="#FEFEFE" fill-rule="nonzero" points="376.5 314.8 345.1 346.2 313.8 314.8"></polygon>
                    <g id="Group-549" transform="translate(62.088091, 314.150974)" fill="#FEFEFE" fill-opacity="0" fill-rule="nonzero">
                        <polygon id="Fill-547" points="126.2 0.7 157.6 32 189 0.7"></polygon>
                    </g>
                    <polygon id="Fill-550" fill-opacity="0" fill="#FEFEFE" fill-rule="nonzero" points="313.8 314.8 282.4 346.2 251 314.8"></polygon>
                    <polygon id="Fill-551" fill-opacity="0" fill="#FEFEFE" fill-rule="nonzero" points="376.6 314.8 408 346.2 439.3 314.8"></polygon>
                    <g id="Group-566" transform="translate(438.698206, 314.150974)" fill="#FEFEFE" fill-opacity="0" fill-rule="nonzero">
                        <polygon id="Fill-552" points="0.6 0.7 32 32 63.3 0.7"></polygon>
                        <polygon id="Fill-554" points="63.3 0.7 94.7 32 126.1 0.7"></polygon>
                        <polygon id="Fill-556" points="188.8 0.7 157.4 32 126 0.7"></polygon>
                        <polygon id="Fill-558" points="251.4 0.7 220.1 32 188.7 0.7"></polygon>
                    </g>
                    <g id="Group-867" transform="translate(627.000000, 470.971487)" fill="#FEFEFE" fill-opacity="0" fill-rule="nonzero">
                        <polygon id="Fill-837" points="63 32 31.7 0.6 0.3 32"></polygon>
                    </g>
                    <g id="Group-1071" transform="translate(595.000000, 439.381744)" fill-rule="nonzero">
                        <polygon id="Fill-1065" fill="#082046" points="32.3 0.9 0.9 32.2 32.3 63.6"></polygon>
                        <polygon id="Fill-1069" fill-opacity="0" fill="#FEFEFE" points="95 0.9 63.6 32.2 95 63.6"></polygon>
                    </g>
                    <polygon id="Fill-1081" fill-opacity="0" fill="#FEFEFE" fill-rule="nonzero" points="564.6 503 595.9 471.6 564.6 440.3"></polygon>
                    <g id="Group-1114" transform="translate(564.000000, 439.381744)" fill="#FEFEFE" fill-opacity="0" fill-rule="nonzero">
                        <polygon id="Fill-1108" points="126 0.9 94.6 32.2 63.2 0.9"></polygon>
                        <polygon id="Fill-1112" points="63.2 0.9 31.9 32.2 0.5 0.9"></polygon>
                    </g>
                </g>
            </g>
        </g>
    </g>
</svg>